…
CV using`modelr`

``` r
cv_df = 
  crossv_mc(nonlin_df, 100)
```

``` r
cv_df |>
  pull(train) |>
  nth(1) |>
  as_tibble()
```

    ## # A tibble: 79 × 3
    ##       id      x       y
    ##    <int>  <dbl>   <dbl>
    ##  1     1 0.266   2.18  
    ##  2     2 0.372  -0.888 
    ##  3     3 0.573   1.28  
    ##  4     4 0.908  -6.09  
    ##  5     6 0.898   3.36  
    ##  6     7 0.945  -4.26  
    ##  7     8 0.661  -3.43  
    ##  8     9 0.629   1.63  
    ##  9    10 0.0618  0.0274
    ## 10    11 0.206   8.12  
    ## # ℹ 69 more rows

``` r
cv_df |>
  pull(test) |>
  nth(1) |>
  as_tibble()
```

    ## # A tibble: 21 × 3
    ##       id      x      y
    ##    <int>  <dbl>  <dbl>
    ##  1     5 0.202   5.20 
    ##  2    12 0.177   0.730
    ##  3    19 0.380   1.40 
    ##  4    22 0.212  -1.21 
    ##  5    28 0.382   0.935
    ##  6    31 0.482  -1.04 
    ##  7    37 0.794   1.75 
    ##  8    42 0.647   3.42 
    ##  9    47 0.0233 -3.60 
    ## 10    56 0.0995  5.90 
    ## # ℹ 11 more rows
…
